<?xml version="1.0" encoding="utf-8"?>
<!-- Generator: Adobe Illustrator 24.0.3, SVG Export Plug-In . SVG Version: 6.00 Build 0)  -->
<svg version="1.1" id="Layer_1" xmlns="http://www.w3.org/2000/svg" xmlns:xlink="http://www.w3.org/1999/xlink" x="0px" y="0px"
	 width="533.2px" height="512px" viewBox="0 0 533.2 512" style="enable-background:new 0 0 533.2 512;" xml:space="preserve">
<style type="text/css">
	.st0{fill:#007BBC;}
</style>
<g>
	<g>
		<g>
			<g>
				<path class="st0" d="M533.2,312.5v188.9c0,5.3-3.5,8.8-8.8,8.8h-97.1c-5.3,0-8.8-3.5-8.8-8.8V326.6c0-45.9-15.9-77.7-58.3-77.7
					c-31.8,0-49.4,21.2-58.3,42.4c-3.5,7.1-3.5,17.7-3.5,28.2v183.6c0,5.3-3.5,8.8-8.8,8.8h-97.1c-5.3,0-8.8-3.5-8.8-8.8
					c0-45.9,1.8-273.7,0-326.6c0-5.3,3.5-8.8,8.8-8.8h97.1c5.3,0,8.8,3.5,8.8,8.8v40.6c0,0,0,0,0,1.8l0,0v-1.8
					c15.9-23,42.4-56.5,102.4-56.5C476.7,157.1,533.2,206.6,533.2,312.5L533.2,312.5z M15.9,510.2H113c5.3,0,8.8-3.5,8.8-8.8V174.8
					c0-5.3-3.5-8.8-8.8-8.8H15.9c-5.3,0-8.8,3.5-8.8,8.8v326.6C7.1,504.9,10.6,510.2,15.9,510.2z"/>
			</g>
		</g>
	</g>
	<g>
		<path class="st0" d="M121.8,61.8c0,33.5-28.2,61.8-61.8,61.8S0,95.3,0,61.8S28.2,0,61.8,0S121.8,28.2,121.8,61.8z"/>
	</g>
</g>
</svg>
